<?xml version="1.0" encoding="utf-8"?>
<!-- Generator: Adobe Illustrator 24.3.0, SVG Export Plug-In . SVG Version: 6.00 Build 0)  -->
<svg version="1.1" id="圖層_1" xmlns="http://www.w3.org/2000/svg" xmlns:xlink="http://www.w3.org/1999/xlink" x="0px" y="0px"
	 viewBox="0 0 100 100" style="enable-background:new 0 0 100 100;" xml:space="preserve">
<path d="M72.3,26.5c-0.1,0-0.4,0.1-0.6,0.2c-0.2,0.1-0.5,0.1-0.5,0.1c0,0-0.2,0-0.5,0.1c-0.2,0.1-0.7,0.1-1,0.1
	c-0.8,0-1.6,0.1-2.6,0.6L66.4,28l-0.9-0.1c-2.1-0.3-2.4-0.3-3.3-0.3c-0.7,0-1,0-1.2,0.2c-0.2,0.1-0.6,0.2-1,0.2
	c-1.9,0.1-3.4,0.2-4.4,0.5c-0.7,0.2-1.4,0.3-2.4,0.5c-0.4,0.1-1.1,0.2-1.5,0.3c-0.5,0.1-1.2,0.2-1.7,0.3c-1,0.1-1,0.1-2.6,0.8
	c-0.7,0.3-1.5,0.7-1.9,0.9c-0.4,0.1-0.8,0.3-0.9,0.4c-0.1,0.1-0.3,0.1-0.3,0.1c-0.1,0-0.3,0.1-0.5,0.2c-0.2,0.1-0.4,0.2-0.5,0.2
	c-0.2,0-1.5,0.4-2,0.6c-0.1,0-0.4,0.2-0.7,0.3c-0.8,0.3-2.1,1.2-2.4,1.7c-0.8,1.3-0.9,1.4-1.4,1.4c-0.5,0.1-1.8,0.5-2.3,0.7
	c-0.2,0.1-0.5,0.2-0.7,0.3c-0.7,0.2-3.2,1.5-3.5,1.8c-0.4,0.4-0.8,0.6-1.5,0.7c-0.7,0.2-3.1,1-3.3,1.1c-0.1,0.1-0.6,0.3-1.1,0.4
	c-1,0.4-1.5,0.6-1.7,0.8c-0.1,0.1-0.7,0.2-1.3,0.3c-1.5,0.2-1.7,0.2-2.3,0.5c-0.5,0.2-1.3,0.5-2.3,0.7c-0.3,0.1-0.6,0.2-0.8,0.3
	c-0.5,0.3-1.8,1.1-1.9,1.1c-0.2,0-0.8,0.5-1,0.9c-0.1,0.2-0.5,0.6-0.9,0.8c-0.4,0.2-0.7,0.5-0.7,0.5c0,0-0.3,0.2-0.6,0.3
	c-0.3,0.1-0.9,0.3-1.2,0.5c-0.6,0.3-0.7,0.3-0.8,0.7c0,0.2-0.1,0.5-0.1,0.7c0,0.8-0.6,1.6-1.3,2c-0.5,0.2-1.4,1-1.6,1.4
	c-0.1,0.2-0.1,0.5-0.1,0.8c0,0.6-0.2,1-0.7,1.6c-0.3,0.4-0.6,0.5-0.9,0.6c-0.5,0.1-0.7,0.2-0.7,0.5c0,0.2-0.2,0.8-0.3,1.1
	c-0.2,0.4,0,0.9,0.4,1c0.1,0,0.4,0.2,0.5,0.3C4.2,58.9,4.3,59,4.4,59c0.1,0,0.1,0.1,0.1,0.1c0,0.1,0.1,0.2,0.2,0.2
	c0.1,0,0.2,0.2,0.3,0.4c0.1,0.2,0.4,0.4,0.7,0.6c0.4,0.2,0.5,0.3,0.5,0.5c0,0.1,0.1,0.3,0.3,0.4c0.2,0.1,0.4,0.4,0.6,0.8
	c0.1,0.3,0.3,0.7,0.4,0.9c0.1,0.2,0.2,0.4,0.2,0.6c0.1,0.3,0.5,0.6,1,0.5c0.3,0,0.4,0,0.6,0.3c0.1,0.1,0.3,0.3,0.3,0.3
	c0.1,0,0.1,0.1,0.1,0.2c0,0.2,0.3,0.8,0.5,1.1c0,0.1,0.3,0.2,0.6,0.4c0.4,0.2,0.6,0.3,1.3,0.3c0.7,0,0.9,0.1,1.2,0.3
	c0.2,0.1,0.3,0.3,0.3,0.3c0,0,0.1,0.1,0.1,0.1c0.1,0,0.2,0.1,0.3,0.3c0.1,0.2,0.2,0.3,0.4,0.4c0.3,0.2,1,0.9,1.3,1.4
	c0.4,0.7,0.6,0.8,2.3,1c0.4,0,1,0.1,1.5,0.1c0.4,0,1,0.1,1.2,0.2c0.3,0.1,0.4,0.2,0.4,0.6c0,0.4,0.1,0.4,0.5,0.7
	c0.4,0.2,0.5,0.2,1.4,0.1c1.2-0.2,2.1-0.2,2.3,0c0.1,0.1,0.4,0.1,0.7,0.2c0.3,0,1,0.1,1.5,0.3c0.5,0.1,1.5,0.2,2.2,0.3
	c0.7,0,1.7,0.1,2.2,0.2c1.8,0.4,5.3,0.6,8,0.5c1,0,1.9-0.1,2-0.1c0.1,0,1-0.1,2-0.2c1-0.1,2-0.1,2.2-0.2c0.4-0.1,2-0.4,2.8-0.5
	c0.4,0,0.7,0,0.8,0.1c0.2,0.1,0.6,0.1,1.1,0.1c0.8,0,0.8,0,1-0.3c0.2-0.2,0.3-0.3,1.3-0.3c1.6,0,3.6,0,4.1,0.1
	c0.2,0.1,1.2,0.1,2.9,0c1.4-0.1,3.1-0.1,3.7-0.1c1,0,1.2,0,1.3-0.1c0.1-0.1,0.3-0.2,0.4-0.3c0.5-0.2,2-0.4,2.5-0.3
	c0.5,0.1,1,0.1,1.4,0.1c0.2,0,0.2,0.1,0.2,0.2c-0.1,0.3,0.2,0.5,0.8,0.5c0.2,0,0.6,0.1,0.9,0.1c0.6,0.1,2.6,0.1,2.9,0
	c0.2-0.1,0.6-0.1,1.4,0c0.6,0,1.5,0.1,1.9,0c0.4,0,1.3-0.1,2-0.2c0.8-0.1,1.3-0.1,1.4,0c0.2,0.2,1,0.2,1.3,0.1
	c0.2-0.1,0.4-0.2,0.5-0.2s0.3-0.1,0.5-0.3l0.3-0.3l1.5,0c0.8,0,2.5,0.1,3.6,0.1c2.1,0.1,2.6,0.1,2.6-0.2c0-0.2,0.1-0.3,0.5-0.3
	c0.2,0,0.3-0.1,0.4-0.5c0.1-0.2,0.2-0.5,0.2-0.7c0.1-0.2,0.1-0.3,0-0.5c0-0.1-0.1-0.6-0.1-0.9l0-0.7l0.3,0c0.2,0,0.4,0,0.6-0.1
	c0.2-0.1,0.4-0.2,0.5-0.2c0.1,0,0.4-0.1,0.7-0.2c0.6-0.2,1.1-0.6,1.1-1c0-0.5,0.5-0.9,1.2-1.1l0.3-0.1l0-1.4c0-0.8-0.1-1.7-0.1-2.1
	c-0.1-0.4-0.1-0.9-0.1-1.1c0-0.2-0.1-0.5-0.1-0.6c-0.1-0.1-0.1-0.4-0.1-0.6c0-0.2-0.1-0.8-0.3-1.1c-0.1-0.4-0.2-0.8-0.2-0.9
	c0-0.1-0.1-0.3-0.2-0.5c-0.2-0.4-0.2-0.8-0.3-3.1c0-0.9-0.1-1.8-0.1-1.9c0-0.1-0.1-0.5-0.1-0.8c0-0.3-0.1-0.7-0.2-0.9
	c-0.2-0.5-0.2-0.6-0.3-2.2c0-0.8-0.1-1.6-0.1-1.8c-0.1-0.3-0.1-0.4,0.1-0.6c0.1-0.1,0.2-0.2,0.2-0.3s0.1-0.3,0.1-0.4
	c0.1-0.2,0.2-0.5,0.2-0.7c0-0.2,0.2-0.7,0.3-1c0.3-0.6,0.3-0.6,0.3-1.7c0-0.5-0.1-0.8-0.1-0.9c-0.1-0.1-0.1-0.4-0.1-0.6
	c0-0.2,0-0.4-0.1-0.5c0-0.1-0.2-0.4-0.3-0.8c-0.3-1.1-0.8-2.1-1.4-2.8c-0.3-0.4-0.5-0.6-0.6-1.1c-0.1-0.3-0.2-0.7-0.3-0.8
	s-0.2-0.4-0.2-0.5c0-0.1-0.2-0.5-0.3-0.7c-0.2-0.4-0.3-0.5-0.5-0.5c-0.3,0-2.3-1.9-2.5-2.4c-0.2-0.3-1.2-1.3-1.4-1.3
	c-0.1,0-0.3-0.2-0.6-0.4c-0.3-0.2-0.6-0.5-0.7-0.5c-0.1,0-0.4-0.1-0.5-0.2c-0.1-0.1-0.3-0.1-0.4-0.1c-0.1,0-0.2-0.1-0.3-0.2
	c-0.1-0.1-0.3-0.2-1.1-0.1c-0.6,0-1,0-1,0c0-0.1-0.2-0.1-0.5,0c-0.2,0-1.4,0.1-2.6,0.1c-2,0-2.2,0-2.5-0.2c-0.3-0.2-0.5-0.2-1-0.2
	c-0.4,0-0.7,0-0.7,0c-0.1-0.1-0.5-0.1-0.9-0.1c-1.1,0-1.3,0-2,0C72.7,26.5,72.4,26.5,72.3,26.5z"/>
</svg>
