<?xml version="1.0" encoding="utf-8"?>
<!-- Generator: Adobe Illustrator 24.3.0, SVG Export Plug-In . SVG Version: 6.00 Build 0)  -->
<svg version="1.1" id="圖層_1" xmlns="http://www.w3.org/2000/svg" xmlns:xlink="http://www.w3.org/1999/xlink" x="0px" y="0px"
	 viewBox="0 0 100 120.8" style="enable-background:new 0 0 100 120.8;" xml:space="preserve">
<g transform="translate(0.000000,1034.000000) scale(0.100000,-0.100000)">
	<path d="M458.3,10329.6c-6.9-5.7-38.7-36.1-70.5-67.7c-31.9-31.6-67.7-66.8-79.7-78.4c-24.1-23.3-29.5-30.5-43-57.3
		c-7.3-14.4-12.5-26.7-21.5-51.2c-2.3-6.2-10.9-19.5-33-50.9c-43.1-61.2-48.2-69.1-61.9-96c-4.3-8.4-11.6-20.9-16.3-27.9
		c-17.3-25.6-20.9-40-34.2-134.9c-6.2-44.8-7.5-50.5-21-94.8c-14-46.1-17.1-58.7-21.8-90.4c-3.8-25.5-4.7-80.8-1.8-110.1
		c4.1-40.3,2.2-75.3-5.3-99.1c-6.7-21.5-23.8-50.3-40-67.2c-4.7-5.1-8.5-9.2-8.4-9.3c0.1,0,2.3-1,4.8-2.3c7.6-3.9,25.1-20,43.8-40.3
		c14.1-15.5,20.1-21,29.3-27c30-19.7,58.2-29,127.3-41.9c16.7-3.2,42.8-6,56.6-6.1c13.6-0.3,32.5-1.8,41.4-3.4
		c7.8-1.4,20.9-6.2,40.7-14.8c41.4-17.9,52.4-21.4,81.5-24.7c13.9-1.7,23.8-1.9,45.2-1.1c59.9,1.8,92.5,3.1,96.7,3.8
		c2.4,0.4,9.3,1.5,15.3,2.5c6,1,21.3,4.1,34.1,7c12.9,2.8,25.5,5.5,28,5.9c2.5,0.4,5.9,1,7.3,1.4c5.5,1.7,31.3,3.8,47.1,4.1
		c54.1,0.8,78.1,9.3,130.5,46.7c31.4,22.4,91.9,62.4,161.4,106.7l9.2,5.9v22.8c0,42-5.2,77.3-17.9,122.3
		c-8.4,29.8-12.2,51.8-21.6,124.7c-0.8,6-2.8,17.9-4.5,26.7c-5.6,28.1-9.3,71.7-9.5,111.7c-0.1,10.3-0.5,23.4-0.9,29l-0.9,10.4
		l-10.8,12.3c-20.4,23.2-19.3,21.5-45.9,76.6c-3.6,7.1-10.8,19.7-16.4,28.1c-10.4,15.9-41.4,57.4-43.8,59.1c-0.8,0.5-5.1,1-9.8,1
		c-10.7,0-18.5-3.7-28-13.7c-4.3-4.5-10.8-9.3-16-12.1c-8.8-4.6-25.7-10.1-35.4-11.5l-5.1-0.8l-5.6,16.8
		c-10.6,31.8-24.7,61.9-45.4,97c-22.9,38.6-31.9,63.3-38.1,104.4c-1.1,7.8-2.8,18.1-3.8,22.9c-1,5-2.9,15.5-4.5,23.5
		c-11.2,60.5-24.1,81.2-64.3,103.1c-18.7,10.2-27.7,16.8-41.4,29.8c-14.4,14-28.4,23.8-46.7,33.1c-6.4,3.2-11.8,5.9-12.1,5.9
		C471.2,10340,465.3,10335.3,458.3,10329.6z"/>
</g>
</svg>
